{
  "$schema": "../../node_modules/ng-packagr/ng-package.schema.json",
  "dest": "../../lib/direccion-estandar",
  "lib": {
    "entryFile": "src/public-api.ts",
    "umdModuleIds": {
      "@fortawesome/angular-fontawesome": "@fortawesome/angular-fontawesome",
      "@fortawesome/free-regular-svg-icons": "@fortawesome/free-regular-svg-icons",
      "@fortawesome/free-solid-svg-icons": "@fortawesome/free-solid-svg-icons",
      "@ng-bootstrap/ng-bootstrap": "@ng-bootstrap/ng-bootstrap",
      "@ng-select/ng-select": "@ng-select/ng-select",
      "runt/lib/directivas": "runt"
    }
  }
}